<svg xmlns="http://www.w3.org/2000/svg" xmlns:xlink="http://www.w3.org/1999/xlink" width="20" height="21" viewBox="0 0 20 21">
    <defs>
        <path id="a" d="M8.667 10.205c2.13-.029 4.221.541 6.03 1.638l.336.212-4.56 5.008L7.9 14.338a1.887 1.887 0 0 0-2.017-.472 1.84 1.84 0 0 0-1.216 1.653c-.024.44.114.873.385 1.22l.108.126 2.047 2.165H1.493a1.325 1.325 0 0 1-1.286-1.18L.2 17.718v-3.537a.65.65 0 0 1 .133-.4 10.822 10.822 0 0 1 7.655-3.573l.339-.007zm8.466 5.046v2.468c0 .71-.572 1.291-1.293 1.312h-2.127l3.42-3.78zM8.66.361c2.507 0 4.54 2 4.54 4.469 0 2.468-2.033 4.47-4.54 4.47S4.12 7.297 4.12 4.83 6.153.36 8.66.36z"/>
    </defs>
    <g fill="none" fill-rule="nonzero">
        <use fill="#4A4A4A" xlink:href="#a"/>
        <path fill="#429A00" d="M19.18 10.25a.673.673 0 0 0-.947.053l-7.746 8.531-3.467-3.668a.67.67 0 0 0-.94-.072.651.651 0 0 0 0 .932l4.453 4.725 8.694-9.595a.649.649 0 0 0-.047-.905z"/>
    </g>
</svg>
